numer_sta;date;pmer;tend;cod_tend;dd;ff;t;td;u;vv;ww;w1;w2;n;nbas;hbas;cl;cm;ch;pres;niv_bar;geop;tend24;tn12;tn24;tx12;tx24;tminsol;sw;tw;raf10;rafper;per;etat_sol;ht_neige;ssfrai;perssfrai;rr1;rr3;rr6;rr12;rr24;phenspe1;phenspe2;phenspe3;phenspe4;nnuage1;ctype1;hnuage1;nnuage2;ctype2;hnuage2;nnuage3;ctype3;hnuage3;nnuage4;ctype4;hnuage4
7015;2,02104E+13;102190;50;1;340;4.400000;291.850000;283.150000;57;3980;10;mq;mq;mq;0;mq;mq;mq;mq;101630;mq;mq;70;mq;mq;mq;mq;278.850000;mq;mq;6.500000;7.400000;-10;0;0.000000;mq;mq;0.000000;0.000000;0.000000;0.000000;0.000000;mq;mq;mq;mq;mq;mq;mq;mq;mq;mq;mq;mq;mq;mq;mq;mq
7020;2,02104E+13;102130;90;2;80;11.200000;284.850000;282.450000;85;8000;2;2;mq;100;8;800;36;mq;mq;102020;mq;mq;230;mq;mq;mq;mq;mq;mq;mq;13.600000;13.700000;-10;mq;mq;mq;mq;0.000000;0.000000;0.000000;0.000000;0.000000;mq;mq;mq;mq;8;7;600;mq;mq;mq;mq;mq;mq;mq;mq;mq
7027;2,02104E+13;102080;50;3;20;4.000000;292.050000;284.350000;61;16230;0;mq;mq;mq;0;mq;mq;mq;mq;101290;mq;mq;70;mq;mq;mq;mq;282.050000;mq;mq;6.100000;6.500000;-10;1;0.000000;mq;mq;0.000000;0.000000;0.000000;0.000000;0.000000;mq;mq;mq;mq;mq;mq;mq;mq;mq;mq;mq;mq;mq;mq;mq;mq
7037;2,02104E+13;102010;0;0;90;4.400000;296.850000;281.650000;38;17790;0;mq;mq;mq;0;mq;mq;mq;mq;100250;mq;mq;-40;mq;mq;mq;mq;280.750000;mq;mq;6.200000;6.200000;-10;mq;0.000000;mq;mq;0.000000;0.000000;0.000000;0.000000;0.000000;mq;mq;mq;mq;mq;mq;mq;mq;mq;mq;mq;mq;mq;mq;mq;mq
7072;2,02104E+13;101970;-60;7;320;1.700000;295.550000;285.250000;52;7990;0;mq;mq;mq;0;mq;mq;mq;mq;100860;mq;mq;-160;mq;mq;mq;mq;273.950000;mq;mq;2.600000;3.700000;-10;0;0.000000;mq;mq;0.000000;0.000000;0.000000;0.000000;0.000000;mq;mq;mq;mq;mq;mq;mq;mq;mq;mq;mq;mq;mq;mq;mq;mq
7110;2,02104E+13;101710;30;1;110;5.900000;299.050000;279.150000;28;32140;0;mq;mq;mq;1;7500;mq;mq;mq;100580;mq;mq;-120;mq;mq;mq;mq;277.750000;mq;mq;8.600000;9.200000;-10;0;0.000000;mq;mq;0.000000;0.000000;0.000000;0.000000;0.000000;mq;mq;mq;mq;1;mq;7500;mq;mq;mq;mq;mq;mq;mq;mq;mq
7117;2,02104E+13;101870;50;1;70;2.900000;289.750000;283.850000;68;10000;2;2;mq;75;6;2500;30;21;mq;101180;mq;mq;-20;mq;mq;mq;mq;mq;mq;mq;5.400000;6.000000;-10;mq;mq;mq;mq;0.000000;0.000000;0.000000;0.000000;0.000000;mq;mq;mq;mq;6;4;2500;mq;mq;mq;mq;mq;mq;mq;mq;mq
7130;2,02104E+13;101870;10;0;70;2.500000;297.050000;284.050000;44;17600;0;mq;mq;mq;0;mq;mq;mq;mq;101440;mq;mq;-80;mq;mq;mq;mq;280.350000;mq;mq;4.300000;5.900000;-10;0;0.000000;mq;mq;0.000000;0.000000;0.000000;0.000000;0.000000;mq;mq;mq;mq;mq;mq;mq;mq;mq;mq;mq;mq;mq;mq;mq;mq
7139;2,02104E+13;101910;0;0;60;4.300000;297.050000;279.750000;33;15700;0;mq;mq;mq;0;mq;mq;mq;mq;100230;mq;mq;-140;mq;mq;mq;mq;282.050000;mq;mq;6.600000;6.700000;-10;0;0.000000;mq;mq;0.000000;0.000000;0.000000;0.000000;0.000000;mq;mq;mq;mq;mq;mq;mq;mq;mq;mq;mq;mq;mq;mq;mq;mq
7149;2,02104E+13;101960;-60;8;60;4.700000;296.550000;279.750000;34;15000;2;0;0;0;0;mq;30;20;10;100910;mq;mq;-190;mq;mq;mq;mq;mq;mq;mq;6.900000;7.100000;-10;0;0.000000;0.000000;-60;0.000000;0.000000;0.000000;0.000000;0.000000;mq;mq;mq;mq;mq;mq;mq;mq;mq;mq;mq;mq;mq;mq;mq;mq
7168;2,02104E+13;101900;-70;8;10;2.800000;296.550000;280.650000;36;15610;0;mq;mq;mq;0;mq;mq;mq;mq;100530;mq;mq;-270;mq;mq;mq;mq;275.950000;mq;mq;5.300000;5.300000;-10;0;0.000000;mq;mq;0.000000;0.000000;0.000000;0.000000;0.000000;mq;mq;mq;mq;mq;mq;mq;mq;mq;mq;mq;mq;mq;mq;mq;mq
7181;2,02104E+13;101840;-90;7;300;2.700000;295.850000;276.350000;28;19700;0;mq;mq;mq;0;mq;mq;mq;mq;97910;mq;mq;-330;mq;mq;mq;mq;277.750000;mq;mq;4.300000;6.500000;-10;mq;mq;mq;mq;0.000000;0.000000;0.000000;0.000000;0.000000;mq;mq;mq;mq;mq;mq;mq;mq;mq;mq;mq;mq;mq;mq;mq;mq
7190;2,02104E+13;101790;-160;8;70;1.600000;297.950000;279.150000;30;44850;0;mq;mq;mq;0;mq;mq;mq;mq;100050;mq;mq;-470;mq;mq;mq;mq;278.950000;mq;mq;3.900000;3.900000;-10;0;0.000000;mq;mq;0.000000;0.000000;0.000000;0.000000;0.000000;mq;mq;mq;mq;mq;mq;mq;mq;mq;mq;mq;mq;mq;mq;mq;mq
7207;2,02104E+13;101770;30;0;90;7.800000;291.050000;276.850000;39;18000;2;2;mq;100;8;5000;30;21;mq;101260;mq;mq;-160;mq;mq;mq;mq;mq;mq;mq;11.300000;12.800000;-10;0;mq;mq;mq;0.000000;0.000000;0.000000;0.000000;0.000000;mq;mq;mq;mq;8;4;5000;mq;mq;mq;mq;mq;mq;mq;mq;mq
7222;2,02104E+13;101750;-30;8;60;4.300000;296.450000;278.850000;32;44780;0;mq;mq;mq;1;6060;mq;mq;mq;101450;mq;mq;-200;mq;mq;mq;mq;280.950000;mq;mq;7.100000;8.900000;-10;0;0.000000;mq;mq;0.000000;0.000000;0.000000;0.000000;0.000000;mq;mq;mq;mq;1;mq;6060;mq;mq;mq;mq;mq;mq;mq;mq;mq
7240;2,02104E+13;101800;-60;7;70;3.600000;296.150000;282.150000;41;42560;0;mq;mq;mq;0;mq;mq;mq;mq;100500;mq;mq;-280;mq;mq;mq;mq;282.350000;mq;mq;6.400000;6.400000;-10;0;0.000000;mq;mq;0.000000;0.000000;0.000000;0.000000;0.000000;mq;mq;mq;mq;mq;mq;mq;mq;mq;mq;mq;mq;mq;mq;mq;mq
7255;2,02104E+13;101790;-90;6;80;3.100000;295.450000;279.250000;35;19780;0;mq;mq;mq;mq;mq;mq;mq;mq;99870;mq;mq;-340;mq;mq;mq;mq;278.650000;mq;mq;5.800000;5.800000;-10;mq;0.000000;mq;mq;0.000000;0.000000;0.000000;0.000000;0.000000;mq;mq;mq;mq;mq;mq;mq;mq;mq;mq;mq;mq;mq;mq;mq;mq
7280;2,02104E+13;101840;-130;8;200;2.900000;296.050000;279.750000;35;60000;0;mq;mq;mq;0;mq;mq;mq;mq;99220;mq;mq;-380;mq;mq;mq;mq;281.150000;mq;mq;4.700000;6.200000;-10;0;0.000000;mq;mq;0.000000;0.000000;0.000000;0.000000;0.000000;mq;mq;mq;mq;mq;mq;mq;mq;mq;mq;mq;mq;mq;mq;mq;mq
7299;2,02104E+13;101760;-190;8;230;2.800000;297.350000;277.150000;27;50000;1;0;0;10;1;2250;32;20;11;98640;mq;mq;-470;mq;mq;mq;mq;278.350000;mq;mq;5.900000;5.900000;-10;0;0.000000;0.000000;-60;0.000000;0.000000;0.000000;0.000000;0.000000;mq;mq;mq;mq;1;8;2200;1;0;7500;mq;mq;mq;mq;mq;mq
7314;2,02104E+13;101700;-30;8;60;2.300000;292.150000;280.550000;47;mq;mq;0;mq;mq;mq;mq;mq;mq;mq;101430;mq;mq;-280;mq;mq;mq;mq;mq;mq;mq;4.000000;6.100000;-10;mq;mq;mq;mq;0.000000;0.000000;0.000000;0.000000;0.000000;mq;mq;mq;mq;mq;mq;mq;mq;mq;mq;mq;mq;mq;mq;mq;mq
7335;2,02104E+13;101730;-60;8;70;2.600000;296.550000;274.850000;24;54420;0;mq;mq;mq;0;mq;mq;mq;mq;100340;mq;mq;-310;mq;mq;mq;mq;279.650000;mq;mq;4.600000;6.200000;-10;0;0.000000;mq;mq;0.000000;0.000000;0.000000;0.000000;0.000000;mq;mq;mq;mq;mq;mq;mq;mq;mq;mq;mq;mq;mq;mq;mq;mq
7434;2,02104E+13;101550;-120;8;80;4.100000;296.650000;273.050000;21;19870;0;mq;mq;mq;0;mq;mq;mq;mq;96980;mq;mq;-450;mq;mq;mq;mq;280.850000;mq;mq;7.900000;8.300000;-10;0;0.000000;mq;mq;0.000000;0.000000;0.000000;0.000000;0.000000;mq;mq;mq;mq;mq;mq;mq;mq;mq;mq;mq;mq;mq;mq;mq;mq
7460;2,02104E+13;101650;-160;7;180;1.400000;296.150000;264.050000;11;58400;0;mq;mq;mq;0;mq;mq;mq;mq;97920;mq;mq;-390;mq;mq;mq;mq;276.250000;mq;mq;3.200000;4.700000;-10;0;0.000000;mq;mq;0.000000;0.000000;0.000000;0.000000;0.000000;mq;mq;mq;mq;mq;mq;mq;mq;mq;mq;mq;mq;mq;mq;mq;mq
7471;2,02104E+13;mq;-150;8;80;2.500000;292.950000;267.150000;17;20000;0;mq;mq;mq;0;mq;mq;mq;mq;92270;92500;812;-470;mq;mq;mq;mq;270.350000;mq;mq;4.900000;5.700000;-10;0;0.000000;mq;mq;0.000000;0.000000;0.000000;0.000000;0.000000;mq;mq;mq;mq;mq;mq;mq;mq;mq;mq;mq;mq;mq;mq;mq;mq
7481;2,02104E+13;101800;-160;8;200;4.500000;295.550000;277.550000;31;40000;2;0;0;0;0;mq;30;20;10;99030;mq;mq;-470;mq;mq;mq;mq;mq;mq;mq;7.000000;7.000000;-10;0;0.000000;0.000000;-60;0.000000;0.000000;0.000000;0.000000;0.000000;mq;mq;mq;mq;mq;mq;mq;mq;mq;mq;mq;mq;mq;mq;mq;mq
7510;2,02104E+13;101590;-90;8;120;4.700000;294.450000;281.050000;42;31930;0;mq;mq;mq;0;mq;mq;mq;mq;101030;mq;mq;-420;mq;mq;mq;mq;282.750000;mq;mq;6.800000;7.000000;-10;0;0.000000;mq;mq;0.000000;0.000000;0.000000;0.000000;0.000000;mq;mq;mq;mq;mq;mq;mq;mq;mq;mq;mq;mq;mq;mq;mq;mq
7535;2,02104E+13;101600;-120;8;90;2.300000;295.850000;275.850000;27;20000;0;mq;mq;mq;0;mq;mq;mq;mq;98600;mq;mq;-500;mq;mq;mq;mq;282.550000;mq;mq;4.900000;5.200000;-10;0;0.000000;mq;mq;0.000000;0.000000;0.000000;0.000000;0.000000;mq;mq;mq;mq;mq;mq;mq;mq;mq;mq;mq;mq;mq;mq;mq;mq
7558;2,02104E+13;101730;-100;8;150;8.700000;290.150000;273.750000;33;20000;0;mq;mq;mq;mq;mq;mq;mq;mq;93630;mq;mq;-440;mq;mq;mq;mq;274.850000;mq;mq;11.900000;13.200000;-10;mq;0.000000;mq;mq;0.000000;0.000000;0.000000;0.000000;0.000000;mq;mq;mq;mq;mq;mq;mq;mq;mq;mq;mq;mq;mq;mq;mq;mq
7577;2,02104E+13;101950;-200;8;180;4.600000;294.750000;273.850000;25;19630;0;mq;mq;mq;mq;mq;mq;mq;mq;101080;mq;mq;-480;mq;mq;mq;mq;275.750000;mq;mq;7.200000;7.200000;-10;mq;0.000000;mq;mq;0.000000;0.000000;0.000000;0.000000;0.000000;mq;mq;mq;mq;mq;mq;mq;mq;mq;mq;mq;mq;mq;mq;mq;mq
7591;2,02104E+13;mq;240;8;190;4.600000;294.750000;273.250000;24;mq;mq;mq;mq;mq;mq;mq;mq;mq;mq;91770;mq;mq;-520;mq;279.150000;mq;295.550000;mq;mq;mq;mq;mq;mq;mq;mq;mq;mq;0.000000;0.000000;0.000000;0.000000;0.000000;mq;mq;mq;mq;mq;mq;mq;mq;mq;mq;mq;mq;mq;mq;mq;mq
7607;2,02104E+13;101490;-140;8;70;4.400000;294.850000;282.750000;46;19980;0;mq;mq;mq;0;mq;mq;mq;mq;100800;mq;mq;-490;mq;mq;mq;mq;284.950000;mq;mq;6.900000;6.900000;-10;mq;0.000000;mq;mq;0.000000;0.000000;0.000000;0.000000;mq;mq;mq;mq;mq;mq;mq;mq;mq;mq;mq;mq;mq;mq;mq;mq;mq
7621;2,02104E+13;101370;-80;8;20;3.800000;295.750000;280.750000;38;19930;0;mq;mq;mq;0;mq;mq;mq;mq;97230;mq;mq;-480;mq;mq;mq;mq;280.250000;mq;mq;5.700000;5.700000;-10;0;mq;mq;mq;0.000000;0.000000;0.000000;0.000000;0.000000;mq;mq;mq;mq;mq;mq;mq;mq;mq;mq;mq;mq;mq;mq;mq;mq
7627;2,02104E+13;101450;-100;8;320;0.800000;294.750000;283.550000;49;20000;0;mq;mq;mq;3;7020;mq;mq;mq;96730;mq;mq;-480;mq;mq;mq;mq;276.450000;mq;mq;2.100000;2.400000;-10;0;0.000000;mq;mq;0.000000;0.000000;0.000000;0.000000;0.000000;mq;mq;mq;mq;3;mq;7020;mq;mq;mq;mq;mq;mq;mq;mq;mq
7630;2,02104E+13;101690;-100;8;130;8.700000;292.050000;281.350000;50;8120;0;mq;mq;mq;0;mq;mq;mq;mq;99930;mq;mq;-460;mq;mq;mq;mq;283.150000;mq;mq;13.500000;13.500000;-10;0;0.000000;mq;mq;0.000000;0.000000;0.000000;0.000000;0.000000;mq;mq;mq;mq;mq;mq;mq;mq;mq;mq;mq;mq;mq;mq;mq;mq
7643;2,02104E+13;102080;-140;8;150;2.700000;291.150000;278.350000;43;19650;0;mq;mq;mq;0;mq;mq;mq;mq;101980;mq;mq;-500;mq;mq;mq;mq;274.450000;mq;mq;4.300000;4.300000;-10;mq;0.000000;mq;mq;0.000000;0.000000;0.000000;0.000000;0.200000;mq;mq;mq;mq;mq;mq;mq;mq;mq;mq;mq;mq;mq;mq;mq;mq
7650;2,02104E+13;102050;-120;8;300;1.900000;292.850000;276.550000;34;19950;0;mq;mq;mq;0;mq;mq;mq;mq;101670;mq;mq;-490;mq;mq;mq;mq;280.250000;mq;mq;2.800000;3.200000;-10;0;0.000000;mq;mq;0.000000;0.000000;0.000000;0.000000;0.000000;mq;mq;mq;mq;mq;mq;mq;mq;mq;mq;mq;mq;mq;mq;mq;mq
7661;2,02104E+13;mq;mq;mq;300;7.400000;mq;mq;mq;30000;2;0;mq;10;0;6000;30;20;11;mq;mq;mq;mq;mq;mq;mq;mq;mq;mq;mq;10.100000;11.700000;-10;mq;mq;mq;mq;mq;mq;mq;mq;mq;mq;mq;mq;mq;1;0;6000;mq;mq;mq;mq;mq;mq;mq;mq;mq
7690;2,02104E+13;101970;-70;8;130;2.700000;290.250000;285.750000;75;30000;2;0;0;0;0;mq;30;20;10;101660;mq;mq;-580;mq;mq;mq;mq;284.650000;mq;mq;3.500000;3.500000;-10;0;0.000000;mq;mq;0.000000;0.000000;0.000000;0.000000;0.000000;mq;mq;mq;mq;mq;mq;mq;mq;mq;mq;mq;mq;mq;mq;mq;mq
7747;2,02104E+13;101910;-170;8;70;5.200000;290.850000;282.750000;59;30640;0;mq;mq;mq;0;mq;mq;mq;mq;101390;mq;mq;-600;mq;mq;mq;mq;277.550000;mq;mq;7.900000;8.100000;-10;0;0.000000;mq;mq;0.000000;0.000000;0.000000;0.000000;0.000000;mq;mq;mq;mq;mq;mq;mq;mq;mq;mq;mq;mq;mq;mq;mq;mq
7761;2,02104E+13;102020;-130;8;210;4.300000;291.850000;285.850000;68;23530;0;mq;mq;mq;0;mq;mq;mq;mq;101910;mq;mq;-490;mq;mq;mq;mq;280.450000;mq;mq;6.000000;6.200000;-10;mq;0.000000;mq;mq;0.000000;0.000000;0.000000;0.000000;0.000000;mq;mq;mq;mq;mq;mq;mq;mq;mq;mq;mq;mq;mq;mq;mq;mq
7790;2,02104E+13;102000;-80;8;100;2.900000;294.150000;284.450000;54;45590;0;mq;mq;mq;0;mq;mq;mq;mq;101860;mq;mq;-470;mq;mq;mq;mq;278.350000;mq;mq;5.200000;5.200000;-10;mq;0.000000;mq;mq;0.000000;0.000000;0.000000;0.000000;0.000000;mq;mq;mq;mq;mq;mq;mq;mq;mq;mq;mq;mq;mq;mq;mq;mq
61968;2,02104E+13;101040;160;6;120;3.900000;304.650000;297.550000;66;mq;mq;mq;mq;mq;mq;mq;mq;mq;mq;101000;mq;mq;80;mq;mq;mq;mq;mq;mq;mq;mq;mq;mq;mq;mq;mq;mq;0.000000;0.000000;0.000000;mq;mq;mq;mq;mq;mq;mq;mq;mq;mq;mq;mq;mq;mq;mq;mq;mq;mq
61972;2,02104E+13;101550;190;6;150;7.400000;301.450000;292.950000;60;mq;mq;mq;mq;mq;mq;mq;mq;mq;mq;101480;mq;mq;30;mq;296.750000;mq;302.850000;mq;mq;mq;mq;mq;mq;mq;mq;mq;mq;0.000000;0.000000;0.000000;0.000000;0.000000;mq;mq;mq;mq;mq;mq;mq;mq;mq;mq;mq;mq;mq;mq;mq;mq
61976;2,02104E+13;101220;110;5;150;7.200000;303.950000;297.850000;70;mq;mq;mq;mq;mq;mq;mq;mq;mq;mq;101130;mq;mq;130;mq;300.650000;mq;305.650000;mq;mq;mq;mq;mq;mq;mq;mq;mq;mq;0.000000;0.000000;0.000000;0.000000;0.000000;mq;mq;mq;mq;mq;mq;mq;mq;mq;mq;mq;mq;mq;mq;mq;mq
61980;2,02104E+13;101400;-100;5;110;7.900000;302.650000;294.850000;63;20000;0;mq;mq;mq;0;mq;mq;mq;mq;101250;mq;mq;110;mq;mq;mq;mq;mq;mq;mq;10.500000;11.300000;-10;mq;mq;mq;mq;0.000000;0.000000;0.000000;0.200000;0.400000;mq;mq;mq;mq;mq;mq;mq;mq;mq;mq;mq;mq;mq;mq;mq;mq
61996;2,02104E+13;102640;120;8;50;7.100000;289.350000;283.850000;70;mq;mq;mq;mq;mq;mq;mq;mq;mq;mq;102290;mq;mq;-380;mq;284.350000;mq;291.850000;mq;mq;mq;mq;mq;mq;mq;mq;mq;mq;0.000000;0.000000;0.000000;0.000000;0.000000;mq;mq;mq;mq;mq;mq;mq;mq;mq;mq;mq;mq;mq;mq;mq;mq
61997;2,02104E+13;100240;50;5;290;6.200000;280.550000;279.450000;93;mq;mq;mq;mq;mq;mq;mq;mq;mq;mq;98480;mq;mq;70;mq;276.950000;mq;283.250000;mq;mq;mq;mq;mq;mq;mq;mq;mq;mq;0.000000;0.000000;0.000000;0.000000;0.000000;mq;mq;mq;mq;mq;mq;mq;mq;mq;mq;mq;mq;mq;mq;mq;mq
61998;2,02104E+13;100740;-310;8;10;12.900000;284.050000;282.950000;93;5000;61;mq;mq;100;7;450;35;61;60;100380;mq;mq;mq;mq;mq;mq;mq;mq;mq;mq;mq;17.000000;-10;mq;mq;mq;mq;2.000000;mq;3.000000;mq;mq;mq;mq;mq;mq;5;7;300;8;5;1800;mq;mq;mq;mq;mq;mq
67005;2,02104E+13;101090;-180;6;120;2.500000;305.150000;296.950000;62;20000;0;mq;mq;mq;0;mq;mq;mq;mq;101010;mq;mq;40;mq;mq;mq;mq;mq;mq;mq;4.100000;5.400000;-10;mq;mq;mq;mq;0.000000;0.000000;0.000000;0.200000;8.200000;mq;mq;mq;mq;mq;mq;mq;mq;mq;mq;mq;mq;mq;mq;mq;mq
71805;2,02104E+13;102210;-70;7;150;0.900000;275.750000;273.950000;88;15250;0;mq;mq;100;8;450;mq;mq;mq;102120;mq;mq;-1030;mq;mq;mq;mq;272.150000;mq;mq;2.300000;3.100000;-10;mq;mq;mq;mq;0.000000;0.000000;0.000000;0.000000;0.000000;mq;mq;mq;mq;8;mq;540;mq;mq;mq;mq;mq;mq;mq;mq;mq
78890;2,02104E+13;101510;180;3;70;11.000000;300.050000;293.450000;67;mq;mq;mq;mq;mq;mq;mq;mq;mq;mq;101190;mq;mq;-130;mq;296.050000;mq;301.350000;mq;mq;mq;mq;mq;mq;mq;mq;mq;mq;0.000000;0.000000;0.000000;0.000000;2.000000;mq;mq;mq;mq;mq;mq;mq;mq;mq;mq;mq;mq;mq;mq;mq;mq
78894;2,02104E+13;101620;170;1;60;6.300000;299.250000;292.150000;65;mq;mq;mq;mq;mq;mq;mq;mq;mq;mq;101100;mq;mq;-150;mq;295.350000;mq;301.050000;mq;mq;mq;mq;mq;mq;mq;mq;mq;mq;0.000000;0.000000;0.000000;0.000000;5.000000;mq;mq;mq;mq;mq;mq;mq;mq;mq;mq;mq;mq;mq;mq;mq;mq
78897;2,02104E+13;101540;160;3;80;6.800000;299.150000;292.050000;65;39810;mq;mq;mq;mq;mq;mq;mq;mq;mq;101450;mq;mq;-160;mq;mq;mq;mq;mq;mq;mq;mq;mq;mq;mq;mq;mq;mq;0.000000;0.000000;0.000000;0.000000;5.000000;mq;mq;mq;mq;mq;mq;mq;mq;mq;mq;mq;mq;mq;mq;mq;mq
78922;2,02104E+13;101510;190;3;110;6.900000;299.650000;293.450000;69;mq;mq;mq;mq;mq;mq;mq;mq;mq;mq;101060;mq;mq;-140;mq;296.250000;mq;301.550000;mq;mq;mq;mq;mq;mq;mq;mq;mq;mq;0.000000;0.000000;0.000000;0.400000;0.400000;mq;mq;mq;mq;mq;mq;mq;mq;mq;mq;mq;mq;mq;mq;mq;mq
78925;2,02104E+13;101470;180;3;100;6.700000;300.050000;293.650000;68;44910;0;mq;mq;100;6;800;mq;mq;mq;101380;mq;mq;-130;297.050000;mq;mq;302.750000;mq;mq;mq;11.100000;11.100000;-10;mq;mq;mq;mq;0.000000;0.000000;0.000000;0.000000;-0.100000;mq;mq;mq;mq;6;mq;810;8;mq;1680;mq;mq;mq;mq;mq;mq
81401;2,02104E+13;101150;220;3;30;1.200000;297.150000;296.450000;96;mq;mq;mq;mq;mq;mq;mq;mq;mq;mq;101090;mq;mq;-40;mq;295.750000;mq;304.350000;mq;mq;mq;mq;mq;mq;mq;mq;mq;mq;0.000000;0.000000;1.200000;1.200000;3.000000;mq;mq;mq;mq;mq;mq;mq;mq;mq;mq;mq;mq;mq;mq;mq;mq
81405;2,02104E+13;101130;240;3;50;6.900000;301.550000;296.050000;72;20440;0;mq;mq;90;3;800;mq;mq;mq;101040;mq;mq;-50;297.050000;mq;mq;mq;299.650000;mq;mq;10.000000;10.000000;-10;mq;mq;mq;mq;0.000000;0.200000;0.200000;0.200000;0.600000;mq;mq;mq;mq;3;mq;720;7;mq;1620;7;mq;1980;mq;mq;mq
81408;2,02104E+13;101100;230;3;30;0.600000;299.350000;297.250000;88;mq;mq;mq;mq;mq;mq;mq;mq;mq;mq;101020;mq;mq;-20;mq;296.750000;mq;305.550000;mq;mq;mq;mq;mq;mq;mq;mq;mq;mq;0.000000;1.000000;3.400000;3.600000;3.600000;mq;mq;mq;mq;mq;mq;mq;mq;mq;mq;mq;mq;mq;mq;mq;mq
81415;2,02104E+13;101190;200;3;20;1.100000;298.950000;296.650000;87;mq;mq;mq;mq;mq;mq;mq;mq;mq;mq;99980;mq;mq;-20;mq;295.350000;mq;307.150000;mq;mq;mq;mq;mq;mq;mq;mq;mq;mq;0.000000;0.200000;0.200000;0.200000;mq;mq;mq;mq;mq;mq;mq;mq;mq;mq;mq;mq;mq;mq;mq;mq;mq
89642;2,02104E+13;97550;240;1;140;8.200000;262.450000;255.750000;54;mq;mq;mq;mq;mq;mq;mq;mq;mq;mq;97010;mq;mq;mq;261.250000;mq;263.450000;mq;mq;mq;mq;mq;19.000000;-60;mq;mq;mq;mq;mq;mq;mq;mq;mq;mq;mq;mq;mq;mq;mq;mq;mq;mq;mq;mq;mq;mq;mq;mq;mq
